<svg xmlns="http://www.w3.org/2000/svg" width="49.09" height="33.406" viewBox="0 0 49.09 33.406">
  <metadata><?xpacket begin="﻿" id="W5M0MpCehiHzreSzNTczkc9d"?>
<x:xmpmeta xmlns:x="adobe:ns:meta/" x:xmptk="Adobe XMP Core 5.6-c142 79.160924, 2017/07/13-01:06:39        ">
   <rdf:RDF xmlns:rdf="http://www.w3.org/1999/02/22-rdf-syntax-ns#">
      <rdf:Description rdf:about=""/>
   </rdf:RDF>
</x:xmpmeta>
                                                                                                    
                                                                                                    
                                                                                                    
                                                                                                    
                                                                                                    
                                                                                                    
                                                                                                    
                                                                                                    
                                                                                                    
                                                                                                    
                                                                                                    
                                                                                                    
                                                                                                    
                                                                                                    
                                                                                                    
                                                                                                    
                                                                                                    
                                                                                                    
                                                                                                    
                                                                                                    
                           
<?xpacket end="w"?></metadata>
<defs>
    <style>
      .cls-1 {
        fill: #6e6d6b;
        fill-rule: evenodd;
      }
    </style>
  </defs>
  <path id="contact-icon" class="cls-1" d="M1386.88,66.019h-47.16a0.967,0.967,0,0,1-.97-0.969V33.608a0.967,0.967,0,0,1,.97-0.969h47.16a0.973,0.973,0,0,1,.97.969V65.049A0.973,0.973,0,0,1,1386.88,66.019Zm-1.82-1.938-14.27-18.53-7.46,4.995-7.58-5.061-14.29,18.6h43.6ZM1340.68,61.9l13.46-17.5-13.46-8.984V61.9Zm2.23-27.325L1363.3,48.2l20.38-13.621h-40.77Zm29.49,9.892,13.51,17.541V35.424Z" transform="translate(-1338.75 -32.625)"/>
</svg>
