<svg xmlns="http://www.w3.org/2000/svg" width="39.66" height="39.656" viewBox="0 0 39.66 39.656">
  <metadata><?xpacket begin="﻿" id="W5M0MpCehiHzreSzNTczkc9d"?>
<x:xmpmeta xmlns:x="adobe:ns:meta/" x:xmptk="Adobe XMP Core 5.6-c142 79.160924, 2017/07/13-01:06:39        ">
   <rdf:RDF xmlns:rdf="http://www.w3.org/1999/02/22-rdf-syntax-ns#">
      <rdf:Description rdf:about=""/>
   </rdf:RDF>
</x:xmpmeta>
                                                                                                    
                                                                                                    
                                                                                                    
                                                                                                    
                                                                                                    
                                                                                                    
                                                                                                    
                                                                                                    
                                                                                                    
                                                                                                    
                                                                                                    
                                                                                                    
                                                                                                    
                                                                                                    
                                                                                                    
                                                                                                    
                                                                                                    
                                                                                                    
                                                                                                    
                                                                                                    
                           
<?xpacket end="w"?></metadata>
<defs>
    <style>
      .cls-1 {
        fill: #6e6d6b;
        fill-rule: evenodd;
      }
    </style>
  </defs>
  <path id="blog-icon" class="cls-1" d="M1223.17,25.991a19.839,19.839,0,1,1-19.84,19.838A19.673,19.673,0,0,1,1223.17,25.991Zm-10.91,18.963a31.114,31.114,0,0,1,1.98-8.811,25.477,25.477,0,0,1-4.55-2.45,17.714,17.714,0,0,0-4.49,11.261h7.06Zm-7.06,1.75a17.714,17.714,0,0,0,4.49,11.261,25.464,25.464,0,0,1,4.55-2.45,27.8,27.8,0,0,1-1.98-8.811h-7.06Zm12.95-18.2a16.925,16.925,0,0,0-7.23,3.967,20.187,20.187,0,0,0,3.91,2.159A27.874,27.874,0,0,1,1218.15,28.5Zm-7.23,30.692a16.217,16.217,0,0,0,7.23,3.909,24.433,24.433,0,0,1-3.26-6.126A19.535,19.535,0,0,0,1210.92,59.192Zm11.37-20.83a20.365,20.365,0,0,1-6.47-1.634,26.2,26.2,0,0,0-1.81,8.227h8.28V38.361Zm-8.28,8.343a27.306,27.306,0,0,0,1.81,8.228,20.319,20.319,0,0,1,6.47-1.634V46.7h-8.28Zm8.28-18.9a9.9,9.9,0,0,0-1.8.175,35.256,35.256,0,0,0-4.15,7.294,21.816,21.816,0,0,0,5.95,1.284V27.8Zm0,27.307a22.238,22.238,0,0,0-5.89,1.225,31.914,31.914,0,0,0,4.09,7.352,9.9,9.9,0,0,0,1.8.175V55.107Zm1.75-18.555a21.8,21.8,0,0,0,5.96-1.284,35.256,35.256,0,0,0-4.15-7.294,9.921,9.921,0,0,0-1.81-.175v8.752Zm0,8.4h8.29a26.2,26.2,0,0,0-1.81-8.227,20.354,20.354,0,0,1-6.48,1.634v6.593Zm0,1.75V53.3a20.309,20.309,0,0,1,6.48,1.634,27.306,27.306,0,0,0,1.81-8.228h-8.29Zm0,17.154a9.921,9.921,0,0,0,1.81-.175,31.914,31.914,0,0,0,4.09-7.352,22.147,22.147,0,0,0-5.9-1.225v8.752Zm11.38-31.392a16.925,16.925,0,0,0-7.23-3.967,27.874,27.874,0,0,1,3.32,6.126A20.187,20.187,0,0,0,1235.42,32.467ZM1228.19,63.1a16.217,16.217,0,0,0,7.23-3.909,19.718,19.718,0,0,0-3.96-2.218A24.789,24.789,0,0,1,1228.19,63.1Zm12.95-18.146a17.714,17.714,0,0,0-4.49-11.261,25.477,25.477,0,0,1-4.55,2.45,30.774,30.774,0,0,1,1.98,8.811h7.06Zm-7.06,1.75a27.8,27.8,0,0,1-1.98,8.811,25.464,25.464,0,0,1,4.55,2.45,17.714,17.714,0,0,0,4.49-11.261h-7.06Z" transform="translate(-1203.34 -26)"/>
</svg>
