<svg xmlns="http://www.w3.org/2000/svg" width="53.969" height="45.781" viewBox="0 0 53.969 45.781">
  <metadata><?xpacket begin="﻿" id="W5M0MpCehiHzreSzNTczkc9d"?>
<x:xmpmeta xmlns:x="adobe:ns:meta/" x:xmptk="Adobe XMP Core 5.6-c142 79.160924, 2017/07/13-01:06:39        ">
   <rdf:RDF xmlns:rdf="http://www.w3.org/1999/02/22-rdf-syntax-ns#">
      <rdf:Description rdf:about=""/>
   </rdf:RDF>
</x:xmpmeta>
                                                                                                    
                                                                                                    
                                                                                                    
                                                                                                    
                                                                                                    
                                                                                                    
                                                                                                    
                                                                                                    
                                                                                                    
                                                                                                    
                                                                                                    
                                                                                                    
                                                                                                    
                                                                                                    
                                                                                                    
                                                                                                    
                                                                                                    
                                                                                                    
                                                                                                    
                                                                                                    
                           
<?xpacket end="w"?></metadata>
<defs>
    <style>
      .cls-1 {
        fill: #6e6d6b;
        fill-rule: evenodd;
      }
    </style>
  </defs>
  <path id="home-icon" class="cls-1" d="M830.244,36.809l26.993-15.537,5.081,2.913V19.857h7.108v8.416l14.807,8.537H830.244Zm37.1-7.316V21.941H864.41l-0.008.013V27.8l-7.19-4.107L838.061,34.725h38.368Zm10.19,36.137H858.8V54.7l-0.012-.009h-5.325l-0.012.009V65.63H836.689V38.442h40.843V65.63Zm-2.084-25.1H838.774V63.545h12.6V52.61h9.519V63.53l0,0.016h14.555V40.527Zm-4.186,9.5h-7.943V42.536h7.943v7.491Zm-30.489-7.491h7.947v7.491h-7.947V42.536Z" transform="translate(-830.25 -19.844)"/>
</svg>
